{
	"info": {
		"_postman_id": "c4b9a22e-7eed-42f1-bab9-57fcddab04fd",
		"name": "LearingRESTFULService",
		"schema": "https://schema.getpostman.com/json/collection/v2.1.0/collection.json",
		"_exporter_id": "3845959"
	},
	"item": [
		{
			"name": "ListOfUser",
			"event": [
				{
					"listen": "test",
					"script": {
						"exec": [
							"",
							"tests['status code'] = responseCode.code === 200;",
							"",
							"var data = JSON.parse(responseBody);",
							"tests[\"Response has an per_page\"] = data.per_page == \"6\";",
							"tests[\"Response has an page\"] = data.page == \"2\";",
							"tests[\"Response has an total\"] = data.total == \"12\";",
							"tests[\"Response has an total_pages\"] = data.total_pages == \"2\";",
							"",
							"pm.test(\"sla: response time is less than 200ms\", function () {",
							"    pm.expect(pm.response.responseTime).to.be.below(200);",
							"});",
							"",
							"pm.test(\"page equal one | per_page equal six\", () => {",
							"  const responseJson = pm.response.json();",
							"  pm.expect(responseJson.page).to.eql(2);",
							"  pm.expect(responseJson.per_page).to.eql(6)",
							"});",
							"",
							"var schema =",
							"{",
							"    \"$id\": \"http://example.com/example.json\",",
							"    \"type\": \"object\",",
							"    \"default\": {},",
							"    \"title\": \"Root Schema\",",
							"    \"required\": [",
							"        \"page\",",
							"        \"per_page\",",
							"        \"total\",",
							"        \"total_pages\",",
							"        \"data\",",
							"        \"support\"",
							"    ],",
							"    \"properties\": {",
							"        \"page\": {",
							"            \"type\": \"integer\",",
							"            \"default\": 0,",
							"            \"title\": \"The page Schema\",",
							"            \"examples\": [",
							"                1",
							"            ]",
							"        },",
							"        \"per_page\": {",
							"            \"type\": \"integer\",",
							"            \"default\": 0,",
							"            \"title\": \"The per_page Schema\",",
							"            \"examples\": [",
							"                6",
							"            ]",
							"        },",
							"        \"total\": {",
							"            \"type\": \"integer\",",
							"            \"default\": 0,",
							"            \"title\": \"The total Schema\",",
							"            \"examples\": [",
							"                12",
							"            ]",
							"        },",
							"        \"total_pages\": {",
							"            \"type\": \"integer\",",
							"            \"default\": 0,",
							"            \"title\": \"The total_pages Schema\",",
							"            \"examples\": [",
							"                2",
							"            ]",
							"        },",
							"        \"data\": {",
							"            \"type\": \"array\",",
							"            \"default\": [],",
							"            \"title\": \"The data Schema\",",
							"            \"items\": {",
							"                \"type\": \"object\",",
							"                \"title\": \"A Schema\",",
							"                \"required\": [",
							"                    \"id\",",
							"                    \"email\",",
							"                    \"first_name\",",
							"                    \"last_name\",",
							"                    \"avatar\"",
							"                ],",
							"                \"properties\": {",
							"                    \"id\": {",
							"                        \"type\": \"integer\",",
							"                        \"title\": \"The id Schema\",",
							"                        \"examples\": [",
							"                            1,",
							"                            2,",
							"                            3,",
							"                            4,",
							"                            5,",
							"                            6",
							"                        ]",
							"                    },",
							"                    \"email\": {",
							"                        \"type\": \"string\",",
							"                        \"title\": \"The email Schema\",",
							"                        \"examples\": [",
							"                            \"george.bluth@reqres.in\",",
							"                            \"janet.weaver@reqres.in\",",
							"                            \"emma.wong@reqres.in\",",
							"                            \"eve.holt@reqres.in\",",
							"                            \"charles.morris@reqres.in\",",
							"                            \"tracey.ramos@reqres.in\"",
							"                        ]",
							"                    },",
							"                    \"first_name\": {",
							"                        \"type\": \"string\",",
							"                        \"title\": \"The first_name Schema\",",
							"                        \"examples\": [",
							"                            \"George\",",
							"                            \"Janet\",",
							"                            \"Emma\",",
							"                            \"Eve\",",
							"                            \"Charles\",",
							"                            \"Tracey\"",
							"                        ]",
							"                    },",
							"                    \"last_name\": {",
							"                        \"type\": \"string\",",
							"                        \"title\": \"The last_name Schema\",",
							"                        \"examples\": [",
							"                            \"Bluth\",",
							"                            \"Weaver\",",
							"                            \"Wong\",",
							"                            \"Holt\",",
							"                            \"Morris\",",
							"                            \"Ramos\"",
							"                        ]",
							"                    },",
							"                    \"avatar\": {",
							"                        \"type\": \"string\",",
							"                        \"title\": \"The avatar Schema\",",
							"                        \"examples\": [",
							"                            \"https://reqres.in/img/faces/1-image.jpg\",",
							"                            \"https://reqres.in/img/faces/2-image.jpg\",",
							"                            \"https://reqres.in/img/faces/3-image.jpg\",",
							"                            \"https://reqres.in/img/faces/4-image.jpg\",",
							"                            \"https://reqres.in/img/faces/5-image.jpg\",",
							"                            \"https://reqres.in/img/faces/6-image.jpg\"",
							"                        ]",
							"                    }",
							"                },",
							"                \"examples\": [{",
							"                    \"id\": 1,",
							"                    \"email\": \"george.bluth@reqres.in\",",
							"                    \"first_name\": \"George\",",
							"                    \"last_name\": \"Bluth\",",
							"                    \"avatar\": \"https://reqres.in/img/faces/1-image.jpg\"",
							"                },",
							"                {",
							"                    \"id\": 2,",
							"                    \"email\": \"janet.weaver@reqres.in\",",
							"                    \"first_name\": \"Janet\",",
							"                    \"last_name\": \"Weaver\",",
							"                    \"avatar\": \"https://reqres.in/img/faces/2-image.jpg\"",
							"                },",
							"                {",
							"                    \"id\": 3,",
							"                    \"email\": \"emma.wong@reqres.in\",",
							"                    \"first_name\": \"Emma\",",
							"                    \"last_name\": \"Wong\",",
							"                    \"avatar\": \"https://reqres.in/img/faces/3-image.jpg\"",
							"                },",
							"                {",
							"                    \"id\": 4,",
							"                    \"email\": \"eve.holt@reqres.in\",",
							"                    \"first_name\": \"Eve\",",
							"                    \"last_name\": \"Holt\",",
							"                    \"avatar\": \"https://reqres.in/img/faces/4-image.jpg\"",
							"                },",
							"                {",
							"                    \"id\": 5,",
							"                    \"email\": \"charles.morris@reqres.in\",",
							"                    \"first_name\": \"Charles\",",
							"                    \"last_name\": \"Morris\",",
							"                    \"avatar\": \"https://reqres.in/img/faces/5-image.jpg\"",
							"                },",
							"                {",
							"                    \"id\": 6,",
							"                    \"email\": \"tracey.ramos@reqres.in\",",
							"                    \"first_name\": \"Tracey\",",
							"                    \"last_name\": \"Ramos\",",
							"                    \"avatar\": \"https://reqres.in/img/faces/6-image.jpg\"",
							"                }]",
							"            },",
							"            \"examples\": [",
							"                [{",
							"                    \"id\": 1,",
							"                    \"email\": \"george.bluth@reqres.in\",",
							"                    \"first_name\": \"George\",",
							"                    \"last_name\": \"Bluth\",",
							"                    \"avatar\": \"https://reqres.in/img/faces/1-image.jpg\"",
							"                },",
							"                {",
							"                    \"id\": 2,",
							"                    \"email\": \"janet.weaver@reqres.in\",",
							"                    \"first_name\": \"Janet\",",
							"                    \"last_name\": \"Weaver\",",
							"                    \"avatar\": \"https://reqres.in/img/faces/2-image.jpg\"",
							"                },",
							"                {",
							"                    \"id\": 3,",
							"                    \"email\": \"emma.wong@reqres.in\",",
							"                    \"first_name\": \"Emma\",",
							"                    \"last_name\": \"Wong\",",
							"                    \"avatar\": \"https://reqres.in/img/faces/3-image.jpg\"",
							"                },",
							"                {",
							"                    \"id\": 4,",
							"                    \"email\": \"eve.holt@reqres.in\",",
							"                    \"first_name\": \"Eve\",",
							"                    \"last_name\": \"Holt\",",
							"                    \"avatar\": \"https://reqres.in/img/faces/4-image.jpg\"",
							"                },",
							"                {",
							"                    \"id\": 5,",
							"                    \"email\": \"charles.morris@reqres.in\",",
							"                    \"first_name\": \"Charles\",",
							"                    \"last_name\": \"Morris\",",
							"                    \"avatar\": \"https://reqres.in/img/faces/5-image.jpg\"",
							"                },",
							"                {",
							"                    \"id\": 6,",
							"                    \"email\": \"tracey.ramos@reqres.in\",",
							"                    \"first_name\": \"Tracey\",",
							"                    \"last_name\": \"Ramos\",",
							"                    \"avatar\": \"https://reqres.in/img/faces/6-image.jpg\"",
							"                }]",
							"            ]",
							"        },",
							"        \"support\": {",
							"            \"type\": \"object\",",
							"            \"default\": {},",
							"            \"title\": \"The support Schema\",",
							"            \"required\": [",
							"                \"url\",",
							"                \"text\"",
							"            ],",
							"            \"properties\": {",
							"                \"url\": {",
							"                    \"type\": \"string\",",
							"                    \"default\": \"\",",
							"                    \"title\": \"The url Schema\",",
							"                    \"examples\": [",
							"                        \"https://reqres.in/#support-heading\"",
							"                    ]",
							"                },",
							"                \"text\": {",
							"                    \"type\": \"string\",",
							"                    \"default\": \"\",",
							"                    \"title\": \"The text Schema\",",
							"                    \"examples\": [",
							"                        \"To keep ReqRes free, contributions towards server costs are appreciated!\"",
							"                    ]",
							"                }",
							"            },",
							"            \"examples\": [{",
							"                \"url\": \"https://reqres.in/#support-heading\",",
							"                \"text\": \"To keep ReqRes free, contributions towards server costs are appreciated!\"",
							"            }]",
							"        }",
							"    },",
							"    \"examples\": [{",
							"        \"page\": 1,",
							"        \"per_page\": 6,",
							"        \"total\": 12,",
							"        \"total_pages\": 2,",
							"        \"data\": [{",
							"            \"id\": 1,",
							"            \"email\": \"george.bluth@reqres.in\",",
							"            \"first_name\": \"George\",",
							"            \"last_name\": \"Bluth\",",
							"            \"avatar\": \"https://reqres.in/img/faces/1-image.jpg\"",
							"        },",
							"        {",
							"            \"id\": 2,",
							"            \"email\": \"janet.weaver@reqres.in\",",
							"            \"first_name\": \"Janet\",",
							"            \"last_name\": \"Weaver\",",
							"            \"avatar\": \"https://reqres.in/img/faces/2-image.jpg\"",
							"        },",
							"        {",
							"            \"id\": 3,",
							"            \"email\": \"emma.wong@reqres.in\",",
							"            \"first_name\": \"Emma\",",
							"            \"last_name\": \"Wong\",",
							"            \"avatar\": \"https://reqres.in/img/faces/3-image.jpg\"",
							"        },",
							"        {",
							"            \"id\": 4,",
							"            \"email\": \"eve.holt@reqres.in\",",
							"            \"first_name\": \"Eve\",",
							"            \"last_name\": \"Holt\",",
							"            \"avatar\": \"https://reqres.in/img/faces/4-image.jpg\"",
							"        },",
							"        {",
							"            \"id\": 5,",
							"            \"email\": \"charles.morris@reqres.in\",",
							"            \"first_name\": \"Charles\",",
							"            \"last_name\": \"Morris\",",
							"            \"avatar\": \"https://reqres.in/img/faces/5-image.jpg\"",
							"        },",
							"        {",
							"            \"id\": 6,",
							"            \"email\": \"tracey.ramos@reqres.in\",",
							"            \"first_name\": \"Tracey\",",
							"            \"last_name\": \"Ramos\",",
							"            \"avatar\": \"https://reqres.in/img/faces/6-image.jpg\"",
							"        }],",
							"        \"support\": {",
							"            \"url\": \"https://reqres.in/#support-heading\",",
							"            \"text\": \"To keep ReqRes free, contributions towards server costs are appreciated!\"",
							"        }",
							"    }]",
							"};",
							"",
							"pm.test(\"Validate schema json response data format \", () => {",
							"    pm.response.to.have.jsonSchema(schema);",
							"});",
							"",
							""
						],
						"type": "text/javascript"
					}
				}
			],
			"request": {
				"method": "GET",
				"header": [],
				"url": {
					"raw": "{{ServiceEndPoint}}{{ResourceEndPoint}}/users?page=2",
					"host": [
						"{{ServiceEndPoint}}{{ResourceEndPoint}}"
					],
					"path": [
						"users"
					],
					"query": [
						{
							"key": "page",
							"value": "2"
						}
					]
				}
			},
			"response": []
		},
		{
			"name": "CreateUser",
			"event": [
				{
					"listen": "test",
					"script": {
						"exec": [
							"pm.test(\"validate, status code is created: 201\", function () {",
							"    pm.response.to.have.status(201);",
							"});",
							"",
							"pm.test(\"sla: response time is less than 200ms\", function () {",
							"    pm.expect(pm.response.responseTime).to.be.below(500);",
							"});",
							"",
							"var schema =",
							"{",
							"    \"$id\": \"http://example.com/example.json\",",
							"    \"type\": \"object\",",
							"    \"default\": {},",
							"    \"title\": \"Root Schema\",",
							"    \"required\": [",
							"        \"name\",",
							"        \"job\",",
							"        \"id\",",
							"        \"createdAt\"",
							"    ],",
							"    \"properties\": {",
							"        \"name\": {",
							"            \"type\": \"string\",",
							"            \"default\": \"\",",
							"            \"title\": \"The name Schema\",",
							"            \"examples\": [",
							"                \"md zaman\"",
							"            ]",
							"        },",
							"        \"job\": {",
							"            \"type\": \"string\",",
							"            \"default\": \"\",",
							"            \"title\": \"The job Schema\",",
							"            \"examples\": [",
							"                \"Tech Lead, Software Enginners\"",
							"            ]",
							"        },",
							"        \"id\": {",
							"            \"type\": \"string\",",
							"            \"default\": \"\",",
							"            \"title\": \"The id Schema\",",
							"            \"examples\": [",
							"                \"312\"",
							"            ]",
							"        },",
							"        \"createdAt\": {",
							"            \"type\": \"string\",",
							"            \"default\": \"\",",
							"            \"title\": \"The createdAt Schema\",",
							"            \"examples\": [",
							"                \"2023-05-03T15:59:03.296Z\"",
							"            ]",
							"        }",
							"    },",
							"    \"examples\": [{",
							"        \"name\": \"md zaman\",",
							"        \"job\": \"Tech Lead, Software Enginners\",",
							"        \"id\": \"312\",",
							"        \"createdAt\": \"2023-05-03T15:59:03.296Z\"",
							"    }]",
							"};",
							"",
							"pm.test(\"Validate schema json response data format \", () => {",
							"    pm.response.to.have.jsonSchema(schema);",
							"});",
							"",
							""
						],
						"type": "text/javascript"
					}
				},
				{
					"listen": "prerequest",
					"script": {
						"exec": [
							""
						],
						"type": "text/javascript"
					}
				}
			],
			"request": {
				"method": "POST",
				"header": [],
				"body": {
					"mode": "raw",
					"raw": "{\n    \"name\": \"md zaman\",\n    \"job\": \"Tech Lead, Software Enginners\"\n}",
					"options": {
						"raw": {
							"language": "json"
						}
					}
				},
				"url": {
					"raw": "{{ServiceEndPoint}}{{ResourceEndPoint}}/users",
					"host": [
						"{{ServiceEndPoint}}{{ResourceEndPoint}}"
					],
					"path": [
						"users"
					]
				}
			},
			"response": []
		}
	],
	"event": [
		{
			"listen": "prerequest",
			"script": {
				"type": "text/javascript",
				"exec": [
					""
				]
			}
		},
		{
			"listen": "test",
			"script": {
				"type": "text/javascript",
				"exec": [
					""
				]
			}
		}
	],
	"variable": [
		{
			"key": "ServiceEndPoint",
			"value": "https://reqres.in",
			"type": "string"
		},
		{
			"key": "ResourceEndPoint",
			"value": "/api",
			"type": "string"
		}
	]
}